{
	"ThreadedTask": {
		"Delay between runs (ms)": 500.0
	},
	"Widgets": {
		"Default": {
			"Type": "normal",
			"Default current value": 0.0,
			"Label size": 120,
			"Size": 120,
			"Style sheet": "QLabel { color : black; }",
			"Style sheet (2)": "QLabel { background-color : red; color : black; }"
		},
		"GPS speed": {
			"Colors": {
				"Color count": 5,
				"C0": { "R": 255, "G": 255, "B": 255, "Limit":  0.2 },
				"C1": { "R": 255, "G": 165, "B":   0, "Limit":  1.0 },
				"C2": { "R":   0, "G": 255, "B":   0, "Limit":  5.0 },
				"C3": { "R":   0, "G": 165, "B":   0, "Limit":  8.0 },
				"C4": { "R": 255, "G":   0, "B":   0, "Limit": 10.0 }
			},
			"Degree range A": -45.0,
			"Degree range B": 225.0,
			"Label format": "GPS %.1f kts",
			"Value range min": 0.0,
			"Value range max": 10.0,
			"Value range step": 1.0,
			"Value range substep": 1.0
		},
		"Water speed": {
			"Colors": {
				"Color count": 5,
				"C0": { "R": 255, "G":   0, "B":   0, "Limit": -5.0 },
				"C1": { "R":   0, "G": 165, "B":   0, "Limit": -4.0 },
				"C2": { "R":   0, "G": 255, "B":   0, "Limit":  4.0 },
				"C3": { "R":   0, "G": 165, "B":   0, "Limit":  5.0 },
				"C4": { "R": 255, "G":   0, "B":   0, "Limit":  6.0 }
			},
			"Degree range A": -45.0,
			"Degree range B": 225.0,
			"Label format": "Water %.1f kts",
			"Value range min": -6.0,
			"Value range max": 6.0,
			"Value range step": 1.0,
			"Value range substep": 1.0
		},
		"GPS course": {
			"Type": "compass",
			"Label format": "GPS %.0f°"
		},
		"Compass degree_t": {
			"Type": "compass",
			"Label format": "Compass %.0f°"
		},
		"Target course": {
			"Type": "compass",
			"Label format": "Target %.0f°"
		},
		"Course error": {
			"Colors": {
				"Color count": 5,
				"C0": { "R": 255, "G":   0, "B":   0, "Limit": -90.0 },
				"C1": { "R":   0, "G": 165, "B":   0, "Limit": -10.0 },
				"C2": { "R":   0, "G": 255, "B":   0, "Limit":  10.0 },
				"C3": { "R":   0, "G": 165, "B":   0, "Limit":  90.0 },
				"C4": { "R": 255, "G":   0, "B":   0, "Limit": 180.0 }
			},
			"Degree range A": -90.0,
			"Degree range B": 270.0,
			"Label format": "Route err. %.1f°",
			"Value range min": -180.0,
			"Value range max": 179.99,
			"Value range step": 45.0,
			"Value range substep": 22.5
		},
		"Cross track error": {
			"Colors": {
				"Color count": 5,
				"C0": { "R": 255, "G":   0, "B":   0, "Limit": -40.0 },
				"C1": { "R":   0, "G": 165, "B":   0, "Limit": -10.0 },
				"C2": { "R":   0, "G": 255, "B":   0, "Limit":  10.0 },
				"C3": { "R":   0, "G": 165, "B":   0, "Limit":  40.0 },
				"C4": { "R": 255, "G":   0, "B":   0, "Limit":  50.0 }
			},
			"Degree range A": -45.0,
			"Degree range B": 225.0,
			"Label format": "X track err. %.1f m",
			"Value range min": -50.0,
			"Value range max": 50.0,
			"Value range step": 10.0,
			"Value range substep": 10.0
		},
		"Helm": {
			"Colors": {
				"Color count": 5,
				"C0": { "R": 255, "G":   0, "B":   0, "Limit": -80.0 },
				"C1": { "R":   0, "G": 165, "B":   0, "Limit": -30.0 },
				"C2": { "R":   0, "G": 255, "B":   0, "Limit":  30.0 },
				"C3": { "R":   0, "G": 165, "B":   0, "Limit":  80.0 },
				"C4": { "R": 255, "G":   0, "B":   0, "Limit": 100.0 }
			},
			"Degree range A": 0.0,
			"Degree range B": 180.0,
			"Label format": "Helm %.0f%%",
			"Value range min": -100.0,
			"Value range max": 100.0,
			"Value range step": 50.0,
			"Value range substep": 25.0
		},
		"Relative wind speed": {
			"Colors": {
				"Color count": 4,
				"C0": { "R": 255, "G": 255, "B": 255, "Limit":  5.0 },
				"C1": { "R":   0, "G": 255, "B":   0, "Limit": 20.0 },
				"C2": { "R":   0, "G": 165, "B":   0, "Limit": 40.0 },
				"C3": { "R": 255, "G":   0, "B":   0, "Limit": 60.0 }
			},
			"Degree range A": -45.0,
			"Degree range B": 225.0,
			"Label format": "Rel. wind %.1f kts",
			"Value range min": 0.0,
			"Value range max": 60.0,
			"Value range step": 10.0,
			"Value range substep": 5.0
		},
		"Relative wind degree_t": {
			"Type": "compass",
			"Label format": "Rel. wind %.0f°"
		},
		"Real wind speed": {
			"Colors": {
				"Color count": 4,
				"C0": { "R": 255, "G": 255, "B": 255, "Limit":  5.0 },
				"C1": { "R":   0, "G": 255, "B":   0, "Limit": 20.0 },
				"C2": { "R":   0, "G": 165, "B":   0, "Limit": 40.0 },
				"C3": { "R": 255, "G":   0, "B":   0, "Limit": 60.0 }
			},
			"Degree range A": -45.0,
			"Degree range B": 225.0,
			"Label format": "Real wind %.1f kts",
			"Value range min": 0.0,
			"Value range max": 60.0,
			"Value range step": 10.0,
			"Value range substep": 5.0
		},
		"Real wind degree_t": {
			"Type": "compass",
			"Label format": "Real wind %.0f°"
		}
	}
}
