{
	"name":"Etang du Ponant, Montpellier",
    "way points": [
		{
			"name":"start",
			"lat": 43.567643,
			"lon": 4.101863,
			"min distance to pass": 10.0
		},
		{
			"name":"",
			"lat": 43.567193,
			"lon": 4.102023,
			"min distance to pass": 10.0
		},
		{
			"name":"",
			"lat": 43.566227,
			"lon": 4.103019,
			"min distance to pass": 10.0
		},
		{
			"name":"",
			"lat": 43.565755,
			"lon": 4.105041,
			"min distance to pass": 10.0
		},
		{
			"name":"",
			"lat": 43.566459,
			"lon": 4.107372,
			"min distance to pass": 10.0
		},
		{
			"name":"",
			"lat": 43.567260,
			"lon": 4.105425,
			"min distance to pass": 10.0
		},
		{
			"name":"",
			"lat": 43.567100,
			"lon": 4.102498,
			"min distance to pass": 10.0
		},
		{
			"name":"",
			"lat": 43.567353,
			"lon": 4.101903,
			"min distance to pass": 10.0
		},
		{
			"name":"arrival (on earth)",
			"lat": 43.567946,
			"lon": 4.101826,
			"min distance to pass": 10.0
		}
    ]
}
